{ 
	"urls": [
        { 
            "url": "https://framagit.org/knnnn/l/-/raw/main/zhibo.json", 
            "name": "🔥vip线路①🔥" 
        },
        { 
            "url": "https://framagit.org/knnnn/l/-/raw/main/tv.json", 
            "name": "🔥vipI线路②🔥" 
        },
        { 
            "url": "https://codeberg.org/fanstvhpy/tvbo/raw/branch/main/api.json", 
            "name": "🔥自用线路①🔥" 
        },
        {   
        	"url": "https://framagit.org/knnnn/k/-/raw/main/12-1.json", 
            "name": "🔥自用线路②🔥" 
        },
        {   
        	"url": "https://notabug.org/zx/z/raw/master/feimao.json", 
            "name": "🔥自用线路③🔥" 
        },
        { 
            "url": "https://framagit.org/tj/mm/-/raw/main/dj.txt", 
            "name": "🔥短剧影院🔥" 
        },
        { 
            "url": "https://framagit.org/tj/mm/-/raw/main/img/uu.txt?inline=false ", 
            "name": "🔥福利影视🔥" 
        }, 
        { 
            "url": "https://framagit.org/nnno/nn/-/raw/tv/01.json", 
            "name": "🔥二小牛娃🔥" 
        },
        { 
            "url": "https://framagit.org/tj/mm/-/raw/main/img/lilun.json", 
            "name": "🔥理论线路🔥" 
        },
        { 
            "url": "https://framagit.org/tj/mm/-/raw/main/img/dj.json", 
            "name": "🔥短剧线路🔥" 
        },
        {   
        	"url": "https://framagit.org/tj/mm/-/raw/main/img/api.json", 
            "name": "🔥自用线路🔥" 
        },
        {   
        	"url": "https://framagit.org/tj/mm/-/raw/main/img/dd.json", 
            "name": "🔥自建线路🔥" 
        },
        {   
        	"url": "https://framagit.org/knnnn/l/-/raw/main/111.json", 
            "name": "🔥111线路🔥" 
        },
        {   
        	"url": "https://notabug.org/zx/g/raw/main/y180.json", 
            "name": "🔥十八线路🔥" 
        },
        {   
        	"url": "https://suave-glory-taxi.glitch.me/E8plus.txt", 
            "name": "🔥自建18+🔥" 
        },
        {   
        	"url": "https://framagit.org/nnno/k/-/raw/main/18.json", 
            "name": "🔥18+线路🔥" 
        }
    ]
}
